; Engine configuration file.
; It's best edited using the editor UI and not directly,
; since the parameters that go here are not all obvious.
;
; Format:
;   [section] ; section goes between []
;   param=value ; assign values to parameters

config_version=4

[application]

config/name="Nono's String Shuffler"
run/main_scene="res://main.tscn"
run/disable_stdout=true
config/icon="res://icon.png"

[compression]

formats/zstd/long_distance_matching=true
formats/zstd/compression_level=22
formats/zlib/compression_level=9
formats/gzip/compression_level=9

[display]

window/size/width=1680
window/size/height=720
window/stretch/mode="2d"
window/stretch/aspect="keep"

[filesystem]

import/fbx/use_fbx=false

[logging]

file_logging/enable_file_logging.pc=false

[physics]

3d/active_soft_world=false

[rendering]

quality/driver/driver_name="GLES2"
quality/intended_usage/framebuffer_allocation=0
quality/intended_usage/framebuffer_allocation.mobile=1
vram_compression/import_etc=true
vram_compression/import_etc2=false
environment/default_environment="res://default_env.tres"
